{
  "projection_expression": "id, ticker, date_human, MDUS, Direction",
  "table": "TechnicalHistoryTable",
  "period": "daily",
  "q": "[{\"id\":\"direction\",\"condition\":\"eq\",\"val\":\"up\"},{\"id\":\"MDUS\",\"condition\":\"eq\",\"val\":1}]",
  "limit": 20,
  "nextToken": ""
}
